…
``` r
lookup_cat01 <- meta_info$cat01
names(lookup_cat01) <- str_sub(names(lookup_cat01), start = 2L)

lookup_cat01 <- lookup_cat01 %>% 
  rename(cat01_code = code)

lookup_cat01 %>% 
  filter(level == 3)
```

    ## # A tibble: 100 x 5
    ##    cat01_code name                 level unit  parentCode
    ##    <chr>      <chr>                <chr> <chr> <chr>     
    ##  1 000600000  65歳以上無職者人員   3     人    000500000 
    ##  2 010110001  1.1.1 米             3     円    010100000 
    ##  3 010120000  1.1.2 パン           3     円    010100000 
    ##  4 010130000  1.1.3 麺類           3     円    010100000 
    ##  5 010140000  1.1.4 他の穀類       3     円    010100000 
    ##  6 010210000  1.2.1 生鮮魚介       3     円    010200000 
    ##  7 010220000  1.2.2 塩干魚介       3     円    010200000 
    ##  8 010230000  1.2.3 魚肉練製品     3     円    010200000 
    ##  9 010240000  1.2.4 他の魚介加工品 3     円    010200000 
    ## 10 010310000  1.3.1 生鮮肉         3     円    010300000 
    ## # ... with 90 more rows
…
